RISC_CPU_MIPS.sim/sim_1/behav/xsim/simulate.log
Time resolution is 1 ps
Instruction memory loaded from program.mem
================================================================================
 time | PC   | Instr | rs rt | rs_val  rt_val  | ALUop | in1     in2     | ALUres | Z GT | Br J | MemR MemW | Wreg Wdata
================================================================================
               25000 | 0000 | 3015 |  0  0 |      0      0 | 00000 |      0     21 |     21 | 0  0 | 0  0 |  0    0 |   0      21
               35000 | 0002 | 4221 |  1  0 | x      0 | 00010 | x  65505 | x | x  x | 0  0 |  0    0 |   0  x
               45000 | 0004 | 5202 |  1  0 | x      0 | 00010 | x      0 | x | x  x | 1  0 |  0    0 |   0  x
               55000 | 0006 | 3021 |  0  0 |      0      0 | 00000 |      0  65505 |  65505 | 0  0 | 0  0 |  0    0 |   0   65505
               65000 | 0008 | 5202 |  1  0 | x      0 | 00010 | x      0 | x | x  x | 1  0 |  0    0 |   0  x
               75000 | 000a | 3011 |  0  0 |      0      0 | 00000 |      0     17 |     17 | 0  0 | 0  0 |  0    0 |   0      17
               85000 | 000c | 3012 |  0  0 |      0      0 | 00000 |      0     18 |     18 | 0  0 | 0  0 |  0    0 |   0      18
               95000 | 000e | 700a |  0  0 |      0      0 | 00000 |      0      0 |      0 | 1  0 | 0  1 |  0    0 |   0       0
              105000 | 0014 | 6402 |  2  0 | x      0 | 00010 | x      0 | x | x  x | 1  0 |  0    0 |   0  x
              115000 | 0016 | 3016 |  0  0 |      0      0 | 00000 |      0     22 |     22 | 0  0 | 0  0 |  0    0 |   0      22
              125000 | 0018 | 3017 |  0  0 |      0      0 | 00000 |      0     23 |     23 | 0  0 | 0  0 |  0    0 |   0      23
              135000 | 001a | 3020 |  0  0 |      0      0 | 00000 |      0  65504 |  65504 | 0  0 | 0  0 |  0    0 |   0   65504
              145000 | 001c | 6402 |  2  0 | x      0 | 00010 | x      0 | x | x  x | 1  0 |  0    0 |   0  x
              155000 | 001e | f000 |  0  0 |      0      0 | 00000 |      0      0 |      0 | 1  0 | 0  0 |  0    0 |   0       0
=== HALT detected at PC = 001e ===
$finish called at time : 155 ns : File "C:/Study/DATKLL/RISC_CPU_MIPS.srcs/sim_1/new/tb_cpu.v" Line 99
